%YAML 1.1
%TAG !u! tag:unity3d.com,2011:
--- !u!1045 &1
EditorBuildSettings:
  m_ObjectHideFlags: 0
  serializedVersion: 2
  m_Scenes:
  - enabled: 1
    path: Assets/Scenes/GameOver.unity
    guid: f50fc179c5fd36b4082348114c9f357f
  - enabled: 1
    path: Assets/Scenes/SampleScene.unity
    guid: 2cda990e2423bbf4892e6590ba056729
  - enabled: 1
    path: Assets/Scenes/MainMenu.unity
    guid: 11175cc2b5d4f2548b8c9de838ee126b
  - enabled: 1
    path: Assets/Scenes/WinScreen.unity
    guid: 5102350bc3e204341afca79e2c34b451
  m_configObjects: {}
